simulation/qsim/DiceTest.msim.vcd
$comment
	File created using the following command:
		vcd file DiceTest.msim.vcd -direction
$end
$date
	Wed May 20 15:19:14 2020
$end
$version
	ModelSim Version 10.1d
$end
$timescale
	1ps
$end
$scope module DiceTest_vlg_vec_tst $end
$var reg 1 ! clk $end
$var reg 1 " clk1 $end
$var reg 1 # Sw $end
$var wire 1 $ COM $end
$var wire 1 % o0 $end
$var wire 1 & o1 $end
$var wire 1 ' o2 $end
$var wire 1 ( o3 $end
$var wire 1 ) o4 $end
$var wire 1 * o5 $end
$var wire 1 + o6 $end
$var wire 1 , r0 $end
$var wire 1 - r1 $end
$var wire 1 . r2 $end
$var wire 1 / r3 $end
$var wire 1 0 r4 $end
$var wire 1 1 r5 $end
$var wire 1 2 r6 $end
$var wire 1 3 s1 $end
$var wire 1 4 s2 $end
$var wire 1 5 s3 $end
$var wire 1 6 s4 $end
$var wire 1 7 s5 $end
$var wire 1 8 Y [2] $end
$var wire 1 9 Y [1] $end
$var wire 1 : Y [0] $end
$var wire 1 ; Z [2] $end
$var wire 1 < Z [1] $end
$var wire 1 = Z [0] $end
$var wire 1 > sampler $end
$scope module i1 $end
$var wire 1 ? gnd $end
$var wire 1 @ vcc $end
$var wire 1 A unknown $end
$var tri1 1 B devclrn $end
$var tri1 1 C devpor $end
$var tri1 1 D devoe $end
$var wire 1 E ~QUARTUS_CREATED_GND~I_combout $end
$var wire 1 F clk~input_o $end
$var wire 1 G clk~inputCLKENA0_outclk $end
$var wire 1 H inst|Mux0~0_combout $end
$var wire 1 I Sw~input_o $end
$var wire 1 J inst6|Mux3~0_combout $end
$var wire 1 K inst|Mux1~0_combout $end
$var wire 1 L inst6|Mux0~0_combout $end
$var wire 1 M inst6|Mux1~0_combout $end
$var wire 1 N inst6|Mux4~0_combout $end
$var wire 1 O clk1~input_o $end
$var wire 1 P clk1~inputCLKENA0_outclk $end
$var wire 1 Q inst8|Mux1~0_combout $end
$var wire 1 R inst7|Mux3~0_combout $end
$var wire 1 S inst8|Mux0~0_combout $end
$var wire 1 T inst7|Mux2~0_combout $end
$var wire 1 U inst7|Mux1~0_combout $end
$var wire 1 V inst7|Mux0~0_combout $end
$var wire 1 W inst9|inst7~combout $end
$var wire 1 X inst9|inst13~combout $end
$var wire 1 Y inst9|inst18~combout $end
$var wire 1 Z inst9|inst20~combout $end
$var wire 1 [ inst|op [2] $end
$var wire 1 \ inst|op [1] $end
$var wire 1 ] inst|op [0] $end
$var wire 1 ^ inst8|op [2] $end
$var wire 1 _ inst8|op [1] $end
$var wire 1 ` inst8|op [0] $end
$upscope $end
$upscope $end
$enddefinitions $end
#0
$dumpvars
0!
0"
0#
1$
0%
0&
0'
0(
0)
0*
0+
0,
0-
0.
0/
00
01
02
03
04
05
06
07
0:
09
08
0=
0<
0;
x>
0?
1@
xA
1B
1C
1D
0E
0F
0G
0H
0I
1J
0K
0L
0M
1N
0O
0P
0Q
1R
0S
1T
0U
0V
0W
0X
0Y
0Z
0]
0\
0[
0`
0_
0^
$end
#5000
1!
1F
1G
0>
#10000
1"
0!
1O
0F
0G
1P
1>
#15000
1!
1F
1G
0>
#20000
0"
0!
0O
0F
0G
0P
1>
#25000
1!
1F
1G
0>
#30000
1"
0!
1O
0F
0G
1P
1>
#35000
1!
1F
1G
0>
#40000
0"
0!
0O
0F
0G
0P
1>
#45000
1!
1F
1G
0>
#50000
1#
1"
0!
1I
1O
0F
0G
1P
1>
1`
1Q
0R
1:
1W
1/
13
#55000
1!
1F
1G
0>
1]
0J
1K
1=
0W
1X
1(
03
14
#60000
0"
0!
0O
0F
0G
0P
1>
#65000
1!
1F
1G
0>
1\
0]
1J
1<
0=
1L
1W
0(
1%
1+
13
#70000
1"
0!
1O
0F
0G
1P
1>
0`
1_
1R
0:
19
1V
0W
0X
1Y
0/
1,
12
03
04
15
#75000
1!
1F
1G
0>
1]
1H
0J
0K
1=
1W
1(
13
#80000
0"
0!
0O
0F
0G
0P
1>
#85000
1!
1F
1G
0>
0\
0]
1[
1J
0N
0<
0=
1;
1X
0W
0(
1'
1)
14
03
#90000
1"
0!
1O
0F
0G
1P
1>
1`
0Q
0R
1S
1:
1W
1/
13
#95000
1!
1F
1G
0>
1]
0J
1K
1=
0W
0X
0Y
1Z
1(
03
04
05
16
#100000
0#
0"
0!
0I
0O
0F
0G
0P
1>
#105000
1!
1F
1G
0>
#110000
1"
0!
1O
0F
0G
1P
1>
#115000
1!
1F
1G
0>
#120000
0"
0!
0O
0F
0G
0P
1>
#125000
1!
1F
1G
0>
#130000
1"
0!
1O
0F
0G
1P
1>
#135000
1!
1F
1G
0>
#140000
0"
0!
0O
0F
0G
0P
1>
#145000
1!
1F
1G
0>
#150000
1#
1"
0!
1I
1O
0F
0G
1P
1>
1^
0`
0_
1R
0T
18
0:
09
1W
0/
10
1.
13
#155000
1!
1F
1G
0>
1\
0]
0H
1J
0K
1<
0=
1M
1X
0W
0(
1&
1*
14
03
#160000
0"
0!
0O
0F
0G
0P
1>
#165000
1!
1F
1G
0>
0\
1]
0[
0J
1K
1N
0<
1=
0;
0L
0M
0X
1Y
0Z
1W
1(
0'
0)
0%
0+
0&
0*
04
15
06
13
#170000
1"
0!
1O
0F
0G
1P
1>
1`
1Q
0R
1:
0W
1X
1/
03
14
#175000
1!
1F
1G
0>
1\
0]
1J
1<
0=
1L
1W
0(
1%
1+
13
#180000
0"
0!
0O
0F
0G
0P
1>
#185000
1!
1F
1G
0>
1]
1H
0J
0K
1=
0W
0X
0Y
1Z
1(
03
04
05
16
#190000
1"
0!
1O
0F
0G
1P
1>
0`
1_
0Q
1R
0S
0:
19
1U
1W
0/
1-
11
13
#195000
1!
1F
1G
0>
0\
0]
1[
1J
0N
0<
0=
1;
1X
0W
0(
1'
1)
14
03
#200000
0#
0"
0!
0I
0O
0F
0G
0P
1>
#205000
1!
1F
1G
0>
#210000
1"
0!
1O
0F
0G
1P
1>
#215000
1!
1F
1G
0>
#220000
0"
0!
0O
0F
0G
0P
1>
#225000
1!
1F
1G
0>
#230000
1"
0!
1O
0F
0G
1P
1>
#235000
1!
1F
1G
0>
#240000
0"
0!
0O
0F
0G
0P
1>
#245000
1!
1F
1G
0>
#250000
1#
1"
0!
1I
1O
0F
0G
1P
1>
0^
1`
0_
1Q
0R
1T
08
1:
09
0U
0V
1Y
0Z
1W
0X
1/
00
0.
0-
01
0,
02
15
06
13
04
#255000
1!
1F
1G
0>
1]
0J
1K
1=
0W
1X
1(
03
14
#260000
0"
0!
0O
0F
0G
0P
1>
#265000
1!
1F
1G
0>
1\
0]
0H
1J
0K
1<
0=
1M
1W
0(
1&
1*
13
#270000
1"
0!
1O
0F
0G
1P
1>
0`
1_
1R
0:
19
1V
0W
0X
0Y
1Z
0/
1,
12
03
04
05
16
#275000
1!
1F
1G
0>
0\
1]
0[
0J
1K
1N
0<
1=
0;
0L
0M
1X
0Z
1W
1(
0'
0)
0%
0+
0&
0*
14
06
13
#280000
0"
0!
0O
0F
0G
0P
1>
#285000
1!
1F
1G
0>
1\
0]
1J
1<
0=
1L
0X
1Y
0W
0(
1%
1+
04
15
03
#290000
1"
0!
1O
0F
0G
1P
1>
1`
0Q
0R
1S
1:
1W
1/
13
#295000
1!
1F
1G
0>
1]
1H
0J
0K
1=
0W
1X
1(
03
14
#300000
0#
0"
0!
0I
0O
0F
0G
0P
1>
#305000
1!
1F
1G
0>
#310000
1"
0!
1O
0F
0G
1P
1>
#315000
1!
1F
1G
0>
#320000
0"
0!
0O
0F
0G
0P
1>
#325000
1!
1F
1G
0>
#330000
1"
0!
1O
0F
0G
1P
1>
#335000
1!
1F
1G
0>
#340000
0"
0!
0O
0F
0G
0P
1>
#345000
1!
1F
1G
0>
#350000
1#
1"
0!
1I
1O
0F
0G
1P
1>
1^
0`
0_
1R
0T
18
0:
09
1W
0/
10
1.
13
#355000
1!
1F
1G
0>
0\
0]
1[
1J
0N
0<
0=
1;
0X
0Y
1Z
0W
0(
1'
1)
04
05
16
03
#360000
0"
0!
0O
0F
0G
0P
1>
#365000
1!
1F
1G
0>
1]
0J
1K
1=
1W
1(
13
#370000
1"
0!
1O
0F
0G
1P
1>
1`
1Q
0R
1:
0W
1X
1/
03
14
#375000
1!
1F
1G
0>
1\
0]
0H
1J
0K
1<
0=
1M
1W
0(
1&
1*
13
#380000
0"
0!
0O
0F
0G
0P
1>
#385000
1!
1F
1G
0>
0\
1]
0[
0J
1K
1N
0<
1=
0;
0L
0M
1Y
0Z
0W
1(
0'
0)
0%
0+
0&
0*
15
06
03
#390000
1"
0!
1O
0F
0G
1P
1>
0`
1_
0Q
1R
0S
0:
19
1U
1W
0/
1-
11
13
#395000
1!
1F
1G
0>
1\
0]
1J
1<
0=
1L
0X
0Y
1Z
0W
0(
1%
1+
04
05
16
03
#400000
0#
0"
0!
0I
0O
0F
0G
0P
1>
#405000
1!
1F
1G
0>
#410000
1"
0!
1O
0F
0G
1P
1>
#415000
1!
1F
1G
0>
#420000
0"
0!
0O
0F
0G
0P
1>
#425000
1!
1F
1G
0>
#430000
1"
0!
1O
0F
0G
1P
1>
#435000
1!
1F
1G
0>
#440000
0"
0!
0O
0F
0G
0P
1>
#445000
1!
1F
1G
0>
#450000
1#
1"
0!
1I
1O
0F
0G
1P
1>
0^
1`
0_
1Q
0R
1T
08
1:
09
0U
0V
0Z
1W
1X
1/
00
0.
0-
01
0,
02
06
13
14
#455000
1!
1F
1G
0>
1]
1H
0J
0K
1=
0W
0X
1Y
1(
03
04
15
#460000
0"
0!
0O
0F
0G
0P
1>
#465000
1!
1F
1G
0>
0\
0]
1[
1J
0N
0<
0=
1;
1W
0(
1'
1)
13
#470000
1"
0!
1O
0F
0G
1P
1>
0`
1_
1R
0:
19
1V
0W
1X
0/
1,
12
03
14
#475000
1!
1F
1G
0>
1]
0J
1K
1=
1W
1(
13
#480000
0"
0!
0O
0F
0G
0P
1>
#485000
1!
1F
1G
0>
1\
0]
0H
1J
0K
1<
0=
1M
0X
0Y
1Z
0W
0(
1&
1*
04
05
16
03
#490000
1"
0!
1O
0F
0G
1P
1>
1`
0Q
0R
1S
1:
1W
1/
13
#495000
1!
1F
1G
0>
0\
1]
0[
0J
1K
1N
0<
1=
0;
0L
0M
1Y
0Z
0W
1(
0'
0)
0%
0+
0&
0*
15
06
03
#500000
0#
0"
0!
0I
0O
0F
0G
0P
1>
#505000
1!
1F
1G
0>
#510000
1"
0!
1O
0F
0G
1P
1>
#515000
1!
1F
1G
0>
#520000
0"
0!
0O
0F
0G
0P
1>
#525000
1!
1F
1G
0>
#530000
1"
0!
1O
0F
0G
1P
1>
#535000
1!
1F
1G
0>
#540000
0"
0!
0O
0F
0G
0P
1>
#545000
1!
1F
1G
0>
#550000
1#
1"
0!
1I
1O
0F
0G
1P
1>
1^
0`
0_
1R
0T
18
0:
09
1W
0/
10
1.
13
#555000
1!
1F
1G
0>
1\
0]
1J
1<
0=
1L
1X
0W
0(
1%
1+
14
03
#560000
0"
0!
0O
0F
0G
0P
1>
#565000
1!
1F
1G
0>
1]
1H
0J
0K
1=
1W
1(
13
#570000
1"
0!
1O
0F
0G
1P
1>
1`
1Q
0R
1:
0W
0X
0Y
1Z
1/
03
04
05
16
#575000
1!
1F
1G
0>
0\
0]
1[
1J
0N
0<
0=
1;
1W
0(
1'
1)
13
#580000
0"
0!
0O
0F
0G
0P
1>
#585000
1!
1F
1G
0>
1]
0J
1K
1=
0W
1X
1(
03
14
#590000
1"
0!
1O
0F
0G
1P
1>
0`
1_
0Q
1R
0S
0:
19
1U
1W
0/
1-
11
13
#595000
1!
1F
1G
0>
1\
0]
0H
1J
0K
1<
0=
1M
0X
1Y
0W
0(
1&
1*
04
15
03
#600000
0#
0"
0!
0I
0O
0F
0G
0P
1>
#605000
1!
1F
1G
0>
#610000
1"
0!
1O
0F
0G
1P
1>
#615000
1!
1F
1G
0>
#620000
0"
0!
0O
0F
0G
0P
1>
#625000
1!
1F
1G
0>
#630000
1"
0!
1O
0F
0G
1P
1>
#635000
1!
1F
1G
0>
#640000
0"
0!
0O
0F
0G
0P
1>
#645000
1!
1F
1G
0>
#650000
1#
1"
0!
1I
1O
0F
0G
1P
1>
0^
1`
0_
1Q
0R
1T
08
1:
09
0U
0V
0Z
1W
1X
1/
00
0.
0-
01
0,
02
06
13
14
#655000
1!
1F
1G
0>
0\
1]
0[
0J
1K
1N
0<
1=
0;
0L
0M
0Y
0W
1(
0'
0)
0%
0+
0&
0*
05
03
#660000
0"
0!
0O
0F
0G
0P
1>
#665000
1!
1F
1G
0>
1\
0]
1J
1<
0=
1L
1W
0(
1%
1+
13
#670000
1"
0!
1O
0F
0G
1P
1>
0`
1_
1R
0:
19
1V
0W
0X
1Y
0/
1,
12
03
04
15
#675000
1!
1F
1G
0>
1]
1H
0J
0K
1=
1W
1(
13
#680000
0"
0!
0O
0F
0G
0P
1>
#685000
1!
1F
1G
0>
0\
0]
1[
1J
0N
0<
0=
1;
1X
0W
0(
1'
1)
14
03
#690000
1"
0!
1O
0F
0G
1P
1>
1`
0Q
0R
1S
1:
1W
1/
13
#695000
1!
1F
1G
0>
1]
0J
1K
1=
0W
0X
0Y
1Z
1(
03
04
05
16
#700000
0#
0"
0!
0I
0O
0F
0G
0P
1>
#705000
1!
1F
1G
0>
#710000
1"
0!
1O
0F
0G
1P
1>
#715000
1!
1F
1G
0>
#720000
0"
0!
0O
0F
0G
0P
1>
#725000
1!
1F
1G
0>
#730000
1"
0!
1O
0F
0G
1P
1>
#735000
1!
1F
1G
0>
#740000
0"
0!
0O
0F
0G
0P
1>
#745000
1!
1F
1G
0>
#750000
1#
1"
0!
1I
1O
0F
0G
1P
1>
1^
0`
0_
1R
0T
18
0:
09
1W
0/
10
1.
13
#755000
1!
1F
1G
0>
1\
0]
0H
1J
0K
1<
0=
1M
1X
0W
0(
1&
1*
14
03
#760000
0"
0!
0O
0F
0G
0P
1>
#765000
1!
1F
1G
0>
0\
1]
0[
0J
1K
1N
0<
1=
0;
0L
0M
0X
1Y
0Z
1W
1(
0'
0)
0%
0+
0&
0*
04
15
06
13
#770000
1"
0!
1O
0F
0G
1P
1>
1`
1Q
0R
1:
0W
1X
1/
03
14
#775000
1!
1F
1G
0>
1\
0]
1J
1<
0=
1L
1W
0(
1%
1+
13
#780000
0"
0!
0O
0F
0G
0P
1>
#785000
1!
1F
1G
0>
1]
1H
0J
0K
1=
0W
0X
0Y
1Z
1(
03
04
05
16
#790000
1"
0!
1O
0F
0G
1P
1>
0`
1_
0Q
1R
0S
0:
19
1U
1W
0/
1-
11
13
#795000
1!
1F
1G
0>
0\
0]
1[
1J
0N
0<
0=
1;
1X
0W
0(
1'
1)
14
03
#800000
0#
0"
0!
0I
0O
0F
0G
0P
1>
#805000
1!
1F
1G
0>
#810000
1"
0!
1O
0F
0G
1P
1>
#815000
1!
1F
1G
0>
#820000
0"
0!
0O
0F
0G
0P
1>
#825000
1!
1F
1G
0>
#830000
1"
0!
1O
0F
0G
1P
1>
#835000
1!
1F
1G
0>
#840000
0"
0!
0O
0F
0G
0P
1>
#845000
1!
1F
1G
0>
#850000
1#
1"
0!
1I
1O
0F
0G
1P
1>
0^
1`
0_
1Q
0R
1T
08
1:
09
0U
0V
1Y
0Z
1W
0X
1/
00
0.
0-
01
0,
02
15
06
13
04
#855000
1!
1F
1G
0>
1]
0J
1K
1=
0W
1X
1(
03
14
#860000
0"
0!
0O
0F
0G
0P
1>
#865000
1!
1F
1G
0>
1\
0]
0H
1J
0K
1<
0=
1M
1W
0(
1&
1*
13
#870000
1"
0!
1O
0F
0G
1P
1>
0`
1_
1R
0:
19
1V
0W
0X
0Y
1Z
0/
1,
12
03
04
05
16
#875000
1!
1F
1G
0>
0\
1]
0[
0J
1K
1N
0<
1=
0;
0L
0M
1X
0Z
1W
1(
0'
0)
0%
0+
0&
0*
14
06
13
#880000
0"
0!
0O
0F
0G
0P
1>
#885000
1!
1F
1G
0>
1\
0]
1J
1<
0=
1L
0X
1Y
0W
0(
1%
1+
04
15
03
#890000
1"
0!
1O
0F
0G
1P
1>
1`
0Q
0R
1S
1:
1W
1/
13
#895000
1!
1F
1G
0>
1]
1H
0J
0K
1=
0W
1X
1(
03
14
#900000
0#
0"
0!
0I
0O
0F
0G
0P
1>
#905000
1!
1F
1G
0>
#910000
1"
0!
1O
0F
0G
1P
1>
#915000
1!
1F
1G
0>
#920000
0"
0!
0O
0F
0G
0P
1>
#925000
1!
1F
1G
0>
#930000
1"
0!
1O
0F
0G
1P
1>
#935000
1!
1F
1G
0>
#940000
0"
0!
0O
0F
0G
0P
1>
#945000
1!
1F
1G
0>
#950000
1#
1"
0!
1I
1O
0F
0G
1P
1>
1^
0`
0_
1R
0T
18
0:
09
1W
0/
10
1.
13
#955000
1!
1F
1G
0>
0\
0]
1[
1J
0N
0<
0=
1;
0X
0Y
1Z
0W
0(
1'
1)
04
05
16
03
#960000
0"
0!
0O
0F
0G
0P
1>
#965000
1!
1F
1G
0>
1]
0J
1K
1=
1W
1(
13
#970000
1"
0!
1O
0F
0G
1P
1>
1`
1Q
0R
1:
0W
1X
1/
03
14
#975000
1!
1F
1G
0>
1\
0]
0H
1J
0K
1<
0=
1M
1W
0(
1&
1*
13
#980000
0"
0!
0O
0F
0G
0P
1>
#985000
1!
1F
1G
0>
0\
1]
0[
0J
1K
1N
0<
1=
0;
0L
0M
1Y
0Z
0W
1(
0'
0)
0%
0+
0&
0*
15
06
03
#990000
1"
0!
1O
0F
0G
1P
1>
0`
1_
0Q
1R
0S
0:
19
1U
1W
0/
1-
11
13
#995000
1!
1F
1G
0>
1\
0]
1J
1<
0=
1L
0X
0Y
1Z
0W
0(
1%
1+
04
05
16
03
